^V:\SANTA ANA COLLEGE\4. SPRING 2021\CMPR131\ASSIGNMENT PROJECTS\CHAPTER 2 - ASSIGNMENT\CHAPTER 2 - ASSIGNMENT\INPUT.CPP|V:\SANTA ANA COLLEGE\4. SPRING 2021\CMPR131\ASSIGNMENT PROJECTS\CHAPTER 2 - ASSIGNMENT\CHAPTER 2 - ASSIGNMENT\LIST_OF_EMPLOYEE.CPP|V:\SANTA ANA COLLEGE\4. SPRING 2021\CMPR131\ASSIGNMENT PROJECTS\CHAPTER 2 - ASSIGNMENT\CHAPTER 2 - ASSIGNMENT\MAIN.CPP|V:\SANTA ANA COLLEGE\4. SPRING 2021\CMPR131\ASSIGNMENT PROJECTS\CHAPTER 2 - ASSIGNMENT\CHAPTER 2 - ASSIGNMENT\MAIN_PSEUDORANDOM.CPP
V:\SANTA ANA COLLEGE\4. SPRING 2021\CMPR131\ASSIGNMENT PROJECTS\CHAPTER 2 - ASSIGNMENT\CHAPTER 2 - ASSIGNMENT\X64\DEBUG\VC142.PDB
V:\SANTA ANA COLLEGE\4. SPRING 2021\CMPR131\ASSIGNMENT PROJECTS\CHAPTER 2 - ASSIGNMENT\CHAPTER 2 - ASSIGNMENT\X64\DEBUG\VC142.IDB
V:\SANTA ANA COLLEGE\4. SPRING 2021\CMPR131\ASSIGNMENT PROJECTS\CHAPTER 2 - ASSIGNMENT\CHAPTER 2 - ASSIGNMENT\X64\DEBUG\MAIN_PSEUDORANDOM.OBJ
V:\SANTA ANA COLLEGE\4. SPRING 2021\CMPR131\ASSIGNMENT PROJECTS\CHAPTER 2 - ASSIGNMENT\CHAPTER 2 - ASSIGNMENT\X64\DEBUG\MAIN.OBJ
V:\SANTA ANA COLLEGE\4. SPRING 2021\CMPR131\ASSIGNMENT PROJECTS\CHAPTER 2 - ASSIGNMENT\CHAPTER 2 - ASSIGNMENT\X64\DEBUG\LIST_OF_EMPLOYEE.OBJ
V:\SANTA ANA COLLEGE\4. SPRING 2021\CMPR131\ASSIGNMENT PROJECTS\CHAPTER 2 - ASSIGNMENT\CHAPTER 2 - ASSIGNMENT\X64\DEBUG\INPUT.OBJ
^V:\SANTA ANA COLLEGE\4. SPRING 2021\CMPR131\ASSIGNMENT PROJECTS\CHAPTER 2 - ASSIGNMENT\CHAPTER 2 - ASSIGNMENT\INPUT.CPP
V:\SANTA ANA COLLEGE\4. SPRING 2021\CMPR131\ASSIGNMENT PROJECTS\CHAPTER 2 - ASSIGNMENT\CHAPTER 2 - ASSIGNMENT\X64\DEBUG\VC142.PDB
^V:\SANTA ANA COLLEGE\4. SPRING 2021\CMPR131\ASSIGNMENT PROJECTS\CHAPTER 2 - ASSIGNMENT\CHAPTER 2 - ASSIGNMENT\MAIN_PSEUDORANDOM.CPP
V:\SANTA ANA COLLEGE\4. SPRING 2021\CMPR131\ASSIGNMENT PROJECTS\CHAPTER 2 - ASSIGNMENT\CHAPTER 2 - ASSIGNMENT\X64\DEBUG\VC142.PDB
^V:\SANTA ANA COLLEGE\4. SPRING 2021\CMPR131\ASSIGNMENT PROJECTS\CHAPTER 2 - ASSIGNMENT\CHAPTER 2 - ASSIGNMENT\LIST_OF_EMPLOYEE.CPP|V:\SANTA ANA COLLEGE\4. SPRING 2021\CMPR131\ASSIGNMENT PROJECTS\CHAPTER 2 - ASSIGNMENT\CHAPTER 2 - ASSIGNMENT\MAIN.CPP
V:\SANTA ANA COLLEGE\4. SPRING 2021\CMPR131\ASSIGNMENT PROJECTS\CHAPTER 2 - ASSIGNMENT\CHAPTER 2 - ASSIGNMENT\X64\DEBUG\VC142.PDB
V:\SANTA ANA COLLEGE\4. SPRING 2021\CMPR131\ASSIGNMENT PROJECTS\CHAPTER 2 - ASSIGNMENT\CHAPTER 2 - ASSIGNMENT\X64\DEBUG\VC142.IDB
V:\SANTA ANA COLLEGE\4. SPRING 2021\CMPR131\ASSIGNMENT PROJECTS\CHAPTER 2 - ASSIGNMENT\CHAPTER 2 - ASSIGNMENT\X64\DEBUG\MAIN.OBJ
V:\SANTA ANA COLLEGE\4. SPRING 2021\CMPR131\ASSIGNMENT PROJECTS\CHAPTER 2 - ASSIGNMENT\CHAPTER 2 - ASSIGNMENT\X64\DEBUG\LIST_OF_EMPLOYEE.OBJ
^V:\SANTA ANA COLLEGE\4. SPRING 2021\CMPR131\ASSIGNMENT PROJECTS\CHAPTER 2 - ASSIGNMENT\CHAPTER 2 - ASSIGNMENT\LIST_OF_EMPLOYEE.CPP
V:\SANTA ANA COLLEGE\4. SPRING 2021\CMPR131\ASSIGNMENT PROJECTS\CHAPTER 2 - ASSIGNMENT\CHAPTER 2 - ASSIGNMENT\X64\DEBUG\VC142.PDB
^V:\SANTA ANA COLLEGE\4. SPRING 2021\CMPR131\ASSIGNMENT PROJECTS\CHAPTER 2 - ASSIGNMENT\CHAPTER 2 - ASSIGNMENT\MAIN.CPP
V:\SANTA ANA COLLEGE\4. SPRING 2021\CMPR131\ASSIGNMENT PROJECTS\CHAPTER 2 - ASSIGNMENT\CHAPTER 2 - ASSIGNMENT\X64\DEBUG\VC142.PDB
