^V:\SANTA ANA COLLEGE\4. SPRING 2021\CMPR131\ASSIGNMENT PROJECTS\CHAPTER 2 - ASSIGNMENT\CHAPTER 2 - ASSIGNMENT\X64\DEBUG\INPUT.OBJ|V:\SANTA ANA COLLEGE\4. SPRING 2021\CMPR131\ASSIGNMENT PROJECTS\CHAPTER 2 - ASSIGNMENT\CHAPTER 2 - ASSIGNMENT\X64\DEBUG\LIST_OF_EMPLOYEE.OBJ|V:\SANTA ANA COLLEGE\4. SPRING 2021\CMPR131\ASSIGNMENT PROJECTS\CHAPTER 2 - ASSIGNMENT\CHAPTER 2 - ASSIGNMENT\X64\DEBUG\MAIN.OBJ|V:\SANTA ANA COLLEGE\4. SPRING 2021\CMPR131\ASSIGNMENT PROJECTS\CHAPTER 2 - ASSIGNMENT\CHAPTER 2 - ASSIGNMENT\X64\DEBUG\MAIN_PSEUDORANDOM.OBJ
C:\PROGRAM FILES (X86)\WINDOWS KITS\10\LIB\10.0.18362.0\UM\X64\KERNEL32.LIB
C:\PROGRAM FILES (X86)\WINDOWS KITS\10\LIB\10.0.18362.0\UM\X64\USER32.LIB
C:\PROGRAM FILES (X86)\WINDOWS KITS\10\LIB\10.0.18362.0\UM\X64\GDI32.LIB
C:\PROGRAM FILES (X86)\WINDOWS KITS\10\LIB\10.0.18362.0\UM\X64\WINSPOOL.LIB
C:\PROGRAM FILES (X86)\WINDOWS KITS\10\LIB\10.0.18362.0\UM\X64\COMDLG32.LIB
C:\PROGRAM FILES (X86)\WINDOWS KITS\10\LIB\10.0.18362.0\UM\X64\ADVAPI32.LIB
C:\PROGRAM FILES (X86)\WINDOWS KITS\10\LIB\10.0.18362.0\UM\X64\SHELL32.LIB
C:\PROGRAM FILES (X86)\WINDOWS KITS\10\LIB\10.0.18362.0\UM\X64\OLE32.LIB
C:\PROGRAM FILES (X86)\WINDOWS KITS\10\LIB\10.0.18362.0\UM\X64\OLEAUT32.LIB
C:\PROGRAM FILES (X86)\WINDOWS KITS\10\LIB\10.0.18362.0\UM\X64\UUID.LIB
C:\PROGRAM FILES (X86)\WINDOWS KITS\10\LIB\10.0.18362.0\UM\X64\ODBC32.LIB
C:\PROGRAM FILES (X86)\WINDOWS KITS\10\LIB\10.0.18362.0\UM\X64\ODBCCP32.LIB
V:\SANTA ANA COLLEGE\4. SPRING 2021\CMPR131\ASSIGNMENT PROJECTS\CHAPTER 2 - ASSIGNMENT\CHAPTER 2 - ASSIGNMENT\X64\DEBUG\INPUT.OBJ
V:\SANTA ANA COLLEGE\4. SPRING 2021\CMPR131\ASSIGNMENT PROJECTS\CHAPTER 2 - ASSIGNMENT\CHAPTER 2 - ASSIGNMENT\X64\DEBUG\LIST_OF_EMPLOYEE.OBJ
V:\SANTA ANA COLLEGE\4. SPRING 2021\CMPR131\ASSIGNMENT PROJECTS\CHAPTER 2 - ASSIGNMENT\CHAPTER 2 - ASSIGNMENT\X64\DEBUG\MAIN.OBJ
V:\SANTA ANA COLLEGE\4. SPRING 2021\CMPR131\ASSIGNMENT PROJECTS\CHAPTER 2 - ASSIGNMENT\CHAPTER 2 - ASSIGNMENT\X64\DEBUG\MAIN_PSEUDORANDOM.OBJ
C:\WINDOWS\SYSTEM32\TZRES.DLL
C:\WINDOWS\GLOBALIZATION\SORTING\SORTDEFAULT.NLS
C:\PROGRAM FILES (X86)\MICROSOFT VISUAL STUDIO\2019\COMMUNITY\VC\TOOLS\MSVC\14.27.29110\LIB\X64\MSVCPRTD.LIB
C:\PROGRAM FILES (X86)\MICROSOFT VISUAL STUDIO\2019\COMMUNITY\VC\TOOLS\MSVC\14.27.29110\LIB\X64\MSVCRTD.LIB
C:\PROGRAM FILES (X86)\MICROSOFT VISUAL STUDIO\2019\COMMUNITY\VC\TOOLS\MSVC\14.27.29110\LIB\X64\OLDNAMES.LIB
C:\PROGRAM FILES (X86)\MICROSOFT VISUAL STUDIO\2019\COMMUNITY\VC\TOOLS\MSVC\14.27.29110\LIB\X64\VCRUNTIMED.LIB
C:\PROGRAM FILES (X86)\WINDOWS KITS\10\LIB\10.0.18362.0\UCRT\X64\UCRTD.LIB
